127.0.0.1 - - [15/Apr/2024:10:19:53 +0530] "GET / HTTP/1.1" 404 752
0:0:0:0:0:0:0:1 - - [15/Apr/2024:10:19:56 +0530] "GET /ServletDemo1/login.html HTTP/1.1" 304 -
0:0:0:0:0:0:0:1 - - [15/Apr/2024:10:19:56 +0530] "GET /favicon.ico HTTP/1.1" 404 763
0:0:0:0:0:0:0:1 - - [15/Apr/2024:10:19:56 +0530] "GET /favicon.ico HTTP/1.1" 404 763
0:0:0:0:0:0:0:1 - - [15/Apr/2024:10:22:14 +0530] "POST /ServletDemo1/Login HTTP/1.1" 500 56
0:0:0:0:0:0:0:1 - - [15/Apr/2024:10:22:31 +0530] "POST /ServletDemo1/Login HTTP/1.1" 200 475
127.0.0.1 - - [15/Apr/2024:10:38:52 +0530] "GET / HTTP/1.1" 404 752
0:0:0:0:0:0:0:1 - - [15/Apr/2024:10:38:59 +0530] "POST /ServletDemo1/Login HTTP/1.1" 500 56
127.0.0.1 - - [15/Apr/2024:10:51:37 +0530] "GET / HTTP/1.1" 404 752
0:0:0:0:0:0:0:1 - - [15/Apr/2024:10:51:39 +0530] "GET /favicon.ico HTTP/1.1" 404 763
0:0:0:0:0:0:0:1 - - [15/Apr/2024:10:51:46 +0530] "POST /ServletDemo1/Login HTTP/1.1" 500 56
0:0:0:0:0:0:0:1 - - [15/Apr/2024:10:55:05 +0530] "GET /ServletDemo1/HRHomePage HTTP/1.1" 200 149
127.0.0.1 - - [15/Apr/2024:10:56:53 +0530] "GET / HTTP/1.1" 404 752
0:0:0:0:0:0:0:1 - - [15/Apr/2024:10:57:04 +0530] "POST /ServletDemo1/Login HTTP/1.1" 500 60
127.0.0.1 - - [15/Apr/2024:11:13:26 +0530] "GET / HTTP/1.1" 404 752
0:0:0:0:0:0:0:1 - - [15/Apr/2024:11:13:36 +0530] "POST /ServletDemo1/Login HTTP/1.1" 500 60
0:0:0:0:0:0:0:1 - - [15/Apr/2024:11:14:38 +0530] "GET /ServletDemo1/login.html HTTP/1.1" 304 -
0:0:0:0:0:0:0:1 - - [15/Apr/2024:11:14:48 +0530] "POST /ServletDemo1/Login HTTP/1.1" 500 60
127.0.0.1 - - [15/Apr/2024:11:21:43 +0530] "GET / HTTP/1.1" 404 752
0:0:0:0:0:0:0:1 - - [15/Apr/2024:11:22:03 +0530] "POST /ServletDemo1/Login HTTP/1.1" 500 60
192.168.137.130 - - [15/Apr/2024:11:40:45 +0530] "GET / HTTP/1.1" 404 752
192.168.137.130 - - [15/Apr/2024:11:40:52 +0530] "GET /HNAP1/ HTTP/1.1" 404 762
192.168.105.187 - - [15/Apr/2024:14:14:44 +0530] "GET / HTTP/1.1" 404 752
192.168.105.187 - - [15/Apr/2024:14:14:56 +0530] "GET /HNAP1/ HTTP/1.1" 404 762
192.168.137.130 - - [15/Apr/2024:14:16:32 +0530] "GET / HTTP/1.1" 404 752
192.168.137.130 - - [15/Apr/2024:14:16:38 +0530] "GET /HNAP1/ HTTP/1.1" 404 762
