127.0.0.1 - - [16/Apr/2024:10:00:31 +0530] "GET / HTTP/1.1" 404 752
0:0:0:0:0:0:0:1 - - [16/Apr/2024:10:00:32 +0530] "GET /ServletDemo1/login.html HTTP/1.1" 304 -
0:0:0:0:0:0:0:1 - - [16/Apr/2024:10:00:32 +0530] "GET /favicon.ico HTTP/1.1" 404 763
0:0:0:0:0:0:0:1 - - [16/Apr/2024:10:00:39 +0530] "POST /ServletDemo1/Login HTTP/1.1" 500 60
127.0.0.1 - - [16/Apr/2024:10:02:54 +0530] "GET / HTTP/1.1" 404 752
0:0:0:0:0:0:0:1 - - [16/Apr/2024:10:03:05 +0530] "POST /ServletDemo1/Login HTTP/1.1" 500 60
0:0:0:0:0:0:0:1 - - [16/Apr/2024:10:08:30 +0530] "GET /ServletDemo1/Login HTTP/1.1" 500 62
0:0:0:0:0:0:0:1 - - [16/Apr/2024:10:08:51 +0530] "POST /ServletDemo1/Login HTTP/1.1" 500 60
127.0.0.1 - - [16/Apr/2024:10:13:39 +0530] "GET / HTTP/1.1" 404 752
0:0:0:0:0:0:0:1 - - [16/Apr/2024:10:13:46 +0530] "POST /ServletDemo1/Login HTTP/1.1" 500 60
127.0.0.1 - - [16/Apr/2024:10:23:22 +0530] "GET / HTTP/1.1" 404 752
0:0:0:0:0:0:0:1 - - [16/Apr/2024:10:23:30 +0530] "POST /ServletDemo1/Login HTTP/1.1" 500 65
0:0:0:0:0:0:0:1 - - [16/Apr/2024:10:24:14 +0530] "GET /ServletDemo1/Login HTTP/1.1" 500 65
0:0:0:0:0:0:0:1 - - [16/Apr/2024:10:24:46 +0530] "POST /ServletDemo1/Login HTTP/1.1" 500 65
127.0.0.1 - - [16/Apr/2024:10:31:57 +0530] "GET / HTTP/1.1" 404 752
0:0:0:0:0:0:0:1 - - [16/Apr/2024:10:44:50 +0530] "POST /ServletDemo1/Login HTTP/1.1" 500 60
0:0:0:0:0:0:0:1 - - [16/Apr/2024:10:45:08 +0530] "POST /ServletDemo1/Login HTTP/1.1" 200 481
0:0:0:0:0:0:0:1 - - [16/Apr/2024:10:49:01 +0530] "GET /ServletDemo1/EmployeeHomePage HTTP/1.1" 200 258
0:0:0:0:0:0:0:1 - - [16/Apr/2024:10:53:46 +0530] "GET /ServletDemo1/HRHomePage HTTP/1.1" 200 148
0:0:0:0:0:0:0:1 - - [16/Apr/2024:10:57:04 +0530] "POST /ServletDemo1/Login HTTP/1.1" 500 60
0:0:0:0:0:0:0:1 - - [16/Apr/2024:10:59:15 +0530] "POST /ServletDemo1/Login HTTP/1.1" 500 60
0:0:0:0:0:0:0:1 - - [16/Apr/2024:11:09:50 +0530] "GET /ServletDemo1/GetEmpById.html HTTP/1.1" 200 394
127.0.0.1 - - [16/Apr/2024:11:18:29 +0530] "GET / HTTP/1.1" 404 752
0:0:0:0:0:0:0:1 - - [16/Apr/2024:11:18:30 +0530] "GET /ServletDemo1/HRHomePage HTTP/1.1" 200 210
0:0:0:0:0:0:0:1 - - [16/Apr/2024:11:19:21 +0530] "GET /ServletDemo1/HRHomePage HTTP/1.1" 200 210
127.0.0.1 - - [16/Apr/2024:11:19:47 +0530] "GET / HTTP/1.1" 404 752
0:0:0:0:0:0:0:1 - - [16/Apr/2024:11:19:48 +0530] "GET /ServletDemo1/HRHomePage HTTP/1.1" 200 255
0:0:0:0:0:0:0:1 - - [16/Apr/2024:11:19:54 +0530] "GET /ServletDemo1/GetEmpById.html HTTP/1.1" 304 -
0:0:0:0:0:0:0:1 - - [16/Apr/2024:11:22:59 +0530] "POST /ServletDemo1/GetEmpById HTTP/1.1" 500 1441
192.168.137.222 - - [16/Apr/2024:14:17:25 +0530] "GET / HTTP/1.1" 404 752
192.168.137.222 - - [16/Apr/2024:14:17:31 +0530] "GET /HNAP1/ HTTP/1.1" 404 762
